…
The code below created variables city_state, grouped by cities and
summarized the number of total or unsolved homicides within each city.

``` r
data2_summary<-data2%>%
  mutate(
    city_state=paste(city, state, sep=", "))%>%
  group_by(city_state)%>%
 summarize(total=n(),
           unsolved=sum(disposition!="Closed by arrest"))

data2_summary
```

    ## # A tibble: 51 × 3
    ##    city_state      total unsolved
    ##    <chr>           <int>    <int>
    ##  1 Albuquerque, NM   378      146
    ##  2 Atlanta, GA       973      373
    ##  3 Baltimore, MD    2827     1825
    ##  4 Baton Rouge, LA   424      196
    ##  5 Birmingham, AL    800      347
    ##  6 Boston, MA        614      310
    ##  7 Buffalo, NY       521      319
    ##  8 Charlotte, NC     687      206
    ##  9 Chicago, IL      5535     4073
    ## 10 Cincinnati, OH    694      309
    ## # … with 41 more rows
…
``` r
data2_prop_test<-data2_summary%>%
  mutate(
    test=purrr::map2(unsolved, total, prop.test),
    estimate=map_dbl(test,~.x[["estimate"]]),
    ci_lower=map_dbl(test,~.x[["conf.int"]][1]),
    ci_upper=map_dbl(test,~.x[["conf.int"]][2])
    )%>%
  select(-test)

data2_prop_test
```

    ## # A tibble: 51 × 6
    ##    city_state      total unsolved estimate ci_lower ci_upper
    ##    <chr>           <int>    <int>    <dbl>    <dbl>    <dbl>
    ##  1 Albuquerque, NM   378      146    0.386    0.337    0.438
    ##  2 Atlanta, GA       973      373    0.383    0.353    0.415
    ##  3 Baltimore, MD    2827     1825    0.646    0.628    0.663
    ##  4 Baton Rouge, LA   424      196    0.462    0.414    0.511
    ##  5 Birmingham, AL    800      347    0.434    0.399    0.469
    ##  6 Boston, MA        614      310    0.505    0.465    0.545
    ##  7 Buffalo, NY       521      319    0.612    0.569    0.654
    ##  8 Charlotte, NC     687      206    0.300    0.266    0.336
    ##  9 Chicago, IL      5535     4073    0.736    0.724    0.747
    ## 10 Cincinnati, OH    694      309    0.445    0.408    0.483
    ## # … with 41 more rows
…
for(i in 1:5000){
  test0[[i]]=broom::tidy(t.test(output0[[i]]))
}

test_results_0=bind_rows(test0)%>%
  select(estimate, p.value)%>%
  mutate(
    true_mean=0
  )
test_results_0
```

    ## # A tibble: 5,000 × 3
    ##    estimate p.value true_mean
    ##       <dbl>   <dbl>     <dbl>
    ##  1  1.11     0.211          0
    ##  2  1.01     0.376          0
    ##  3  0.432    0.601          0
    ##  4 -0.215    0.823          0
    ##  5  1.76     0.0557         0
    ##  6  0.822    0.335          0
    ##  7 -0.314    0.690          0
    ##  8 -2.48     0.0135         0
    ##  9 -0.00453  0.997          0
    ## 10 -0.758    0.483          0
    ## # … with 4,990 more rows
…
test_results_total
```

    ## # A tibble: 30,000 × 3
    ##    estimate p.value true_mean
    ##       <dbl>   <dbl>     <int>
    ##  1   1.29   0.0937          1
    ##  2   1.96   0.0190          1
    ##  3   0.0827 0.945           1
    ##  4   1.64   0.112           1
    ##  5   3.08   0.00162         1
    ##  6   0.540  0.601           1
    ##  7   0.638  0.544           1
    ##  8   1.33   0.0606          1
    ##  9   1.33   0.0851          1
    ## 10   2.47   0.00407         1
    ## # … with 29,990 more rows
…
